{
    "files"     : {
        "weapons"     : "testdata/armas.tsv",
        "boots"       : "testdata/botas.tsv",
        "helmets"     : "testdata/cascos.tsv",
        "gauntlets"   : "testdata/guantes.tsv",
        "chestpieces" : "testdata/pecheras.tsv"
    },

    "algorithms" : {
        "K"      : 1000,
        "gen-op" : {
            "cross"    : {
                "once"    : {
                    "active"            : false
                },
                "twice"   : {
                    "active"            : false
                },
                "annular" : {
                    "active"            : false,
                    "rot-chain-len"     : 3
                },
                "uniform" : {
                    "active"            : true,
                    "cross-probability" : 0.7
                }
            },
            "mutation" : {
                "single-gene"       : {
                    "active"               : false,
                    "mutation-probability" : 0.5
                },
                "limited-multigene" : {
                    "active"               : true,
                    "mutation-probability" : 0.75
                },
                "uniform-multigene" : {
                    "active"               : false,
                    "mutation-probability" : 0.75
                },
                "complete"          : {
                    "active"               : false,
                    "mutation-probability" : 0.5
                }
            }
        },
        "parent-selection"      : {
            "ponderation" : {
                "method"  : "elite",
                "value"   : 0.7
            },
            "elite"       : true,
            "roulette"    : true,
            "universal"   : false,
            "boltzmann"   : {
                "active"               : false,
                "temperature"          : 50
            },
            "probabilistic-tourney" : {
                "active"               : false,
                "threshold"            : 0.5
            },
            "deterministic-tourney"     : {
                "active"               : false,
                "participants"         : 3
            },
            "ranking"     : false
        },
        "new-gen-selection" : {
            "ponderation" : {
                "method"  : "boltzmann",
                "value"   : 0.7
            },
            "elite"       : false,
            "roulette"    : false,
            "universal"   : false,
            "boltzmann"   : {
                "active"               : true,
                "temperature"          : 0.5
            },
            "probabilistic-tourney" : {
                "active"               : false,
                "threshold"            : 0.5
            },
            "deterministic-tourney"     : {
                "active"               : true,
                "participants"         : 3
            },
            "ranking"     : false
        },
        "implementation" : {
            "fill-all"    : true,
            "fill-parent" : false
        },
        "stop"           : {
            "time"        : {
                "active"          : false,
                "how-much-secs"   : 15
            },
            "generations" : {
                "active"          : true,
                "how-many"        : 100
            },
            "acceptable"  : {
                "active"          : false,
		        "min-fitness"     : 17.6
            },
            "structure"   : {
                "active"              : false,
		        "important-genes"     : {
                    "height"      : false,
                    "weapons"     : false,
                    "boots"       : false,
                    "helmets"     : false,
                    "gauntlets"   : false,
                    "chestpieces" : false
                },
                "how-many-individuals" : 2,
                "how-many-generations" : 50
            },
            "content"     : {
                "active"          : false,
		        "stable-gens"     : 50
            }
        }
    },

    "characters" : {
        "random"      : true,
        "randomPopulationSize" : 6541,
        "class"       : "warrior",
        "quirks"      : [{
            "height"      : 1.3,
            "equipment"   : {
                "weapon"     : 1,
                "boot"       : 2,
                "helmet"     : 3,
                "gauntlet"   : 4,
                "chestpiece" : 5
            }
        }, {
            "height"      : 1.3,
            "equipment"   : {
                "weapon"     : 1,
                "boot"       : 2,
                "helmet"     : 3,
                "gauntlet"   : 4,
                "chestpiece" : 5
            }
        }, {
            "height"      : 1.3,
            "equipment"   : {
                "weapon"     : 1,
                "boot"       : 2,
                "helmet"     : 3,
                "gauntlet"   : 4,
                "chestpiece" : 5
            }
        }]
    }
}
